<svg width="13" height="13" viewBox="0 0 13 13" fill="none" xmlns="http://www.w3.org/2000/svg">
<path d="M7.75 4.59187L12.75 7.75V9L7.75 7.42125V10.7712L9.625 11.8125V12.75L6.8125 12.125L4 12.75V11.8125L5.875 10.7706V7.42062L0.875 9V7.75L5.875 4.59187V1.1875C5.875 0.93886 5.97377 0.700403 6.14959 0.524587C6.3254 0.348772 6.56386 0.25 6.8125 0.25C7.06114 0.25 7.2996 0.348772 7.47541 0.524587C7.65123 0.700403 7.75 0.93886 7.75 1.1875V4.59187Z" fill="white"/>
</svg>
