<svg width="17" height="15" viewBox="0 0 17 15" fill="none" xmlns="http://www.w3.org/2000/svg">
<path d="M15.7186 5.18224L14.5264 1.43021C14.2545 0.574532 13.4364 0 12.4906 0H4.5094C3.56363 0 2.74548 0.574533 2.47363 1.43021L1.28136 5.18224C0.528522 5.49112 0 6.19845 0 7.02174V11.0342C0 11.5881 0.475739 12.0373 1.0625 12.0373H1.06256L1.0625 13.0403C1.0625 13.5943 1.53817 14.0435 2.125 14.0435H3.18756C3.77432 14.0435 4.25006 13.5943 4.25006 13.0404L4.24961 12.0373H12.75L12.7499 13.0403C12.7499 13.5943 13.2256 14.0435 13.8124 14.0435H14.875C15.4618 14.0435 15.9375 13.5943 15.9375 13.0404V12.0373L15.9371 12.0373H15.9375C16.5243 12.0373 17 11.5881 17 11.0342V7.02174C17 6.19845 16.4715 5.49112 15.7186 5.18224L15.7186 5.18224ZM4.50937 2.00621H12.4906L13.4468 5.01553H3.55309L4.50936 2.00621H4.50937ZM4.24997 9.5295C3.66314 9.5295 3.18747 9.08036 3.18747 8.5264C3.18747 7.97238 3.66314 7.52329 4.24997 7.52329C4.83679 7.52329 5.31247 7.97238 5.31247 8.5264C5.31247 9.08036 4.83679 9.5295 4.24997 9.5295ZM12.75 9.5295C12.1631 9.5295 11.6875 9.08036 11.6875 8.5264C11.6875 7.97238 12.1631 7.52329 12.75 7.52329C13.3368 7.52329 13.8125 7.97238 13.8125 8.5264C13.8125 9.08036 13.3368 9.5295 12.75 9.5295Z" fill="#2FB4E9"/>
</svg>
