<svg width="24" height="24" viewBox="0 0 24 24" fill="none" xmlns="http://www.w3.org/2000/svg">
<path d="M1.74884 19.0274L10.944 2.22418C11.0476 2.03456 11.2003 1.87632 11.3861 1.76607C11.5719 1.65583 11.784 1.59766 12 1.59766C12.2161 1.59766 12.4282 1.65583 12.614 1.76607C12.7998 1.87632 12.9525 2.03456 13.056 2.22418L22.2512 19.0274C22.3514 19.2104 22.4021 19.4163 22.3983 19.6249C22.3946 19.8334 22.3366 20.0374 22.23 20.2167C22.1234 20.396 21.9719 20.5444 21.7904 20.6473C21.609 20.7501 21.4038 20.804 21.1952 20.8034H2.80484C2.59626 20.804 2.39112 20.7501 2.20967 20.6473C2.02822 20.5444 1.87672 20.396 1.77012 20.2167C1.66352 20.0374 1.60549 19.8334 1.60175 19.6249C1.59802 19.4163 1.64872 19.2104 1.74884 19.0274ZM13.28 12.8002L13.9248 8.93138C13.9439 8.81683 13.9378 8.6995 13.9069 8.58755C13.876 8.4756 13.8212 8.37171 13.7461 8.2831C13.671 8.19449 13.5776 8.12328 13.4722 8.07443C13.3669 8.02557 13.2522 8.00023 13.136 8.00018H10.864C10.7479 8.00023 10.6332 8.02557 10.5278 8.07443C10.4225 8.12328 10.329 8.19449 10.254 8.2831C10.1789 8.37171 10.1241 8.4756 10.0932 8.58755C10.0623 8.6995 10.0562 8.81683 10.0752 8.93138L10.72 12.8002H13.28ZM13.76 15.8402C13.76 15.3734 13.5746 14.9257 13.2446 14.5957C12.9145 14.2656 12.4668 14.0802 12 14.0802C11.5333 14.0802 11.0856 14.2656 10.7555 14.5957C10.4255 14.9257 10.24 15.3734 10.24 15.8402C10.24 16.307 10.4255 16.7546 10.7555 17.0847C11.0856 17.4148 11.5333 17.6002 12 17.6002C12.4668 17.6002 12.9145 17.4148 13.2446 17.0847C13.5746 16.7546 13.76 16.307 13.76 15.8402Z" fill="#DA1E28"/>
</svg>
