<svg xmlns="http://www.w3.org/2000/svg" width="21" height="20" viewBox="0 0 21 20" fill="none">
<path d="M15.5922 6.74742L15.5924 6.74716C15.7208 6.5897 15.7821 6.38803 15.7631 6.18573C15.744 5.98343 15.6461 5.79676 15.4905 5.66607C15.3349 5.53538 15.1341 5.47116 14.9316 5.4873C14.729 5.50344 14.541 5.59864 14.4081 5.75232L14.4078 5.75258L8.67877 12.5715L6.57419 10.2332C6.57412 10.2331 6.57406 10.233 6.574 10.2329C6.50688 10.1548 6.42483 10.0909 6.33268 10.045C6.24044 9.99895 6.13993 9.97184 6.03707 9.96522C5.9342 9.9586 5.83105 9.97262 5.73367 10.0064C5.6363 10.0403 5.54667 10.0932 5.47004 10.1621C5.39342 10.2311 5.33136 10.3147 5.28749 10.408C5.24363 10.5012 5.21886 10.6023 5.21463 10.7053C5.2104 10.8083 5.22681 10.9111 5.26288 11.0077C5.29891 11.1042 5.35386 11.1925 5.42449 11.2675C5.42455 11.2675 5.42461 11.2676 5.42467 11.2676L8.12429 14.2672C8.19679 14.3478 8.28542 14.4123 8.38444 14.4564C8.48346 14.5006 8.59065 14.5234 8.69905 14.5234L8.71172 14.5234L8.71209 14.5234C8.82291 14.5217 8.93206 14.4961 9.03214 14.4485C9.13222 14.4009 9.2209 14.3323 9.29217 14.2474L15.5922 6.74742ZM0.773438 10C0.773438 4.63685 5.13685 0.273438 10.5 0.273438C15.8631 0.273438 20.2266 4.63685 20.2266 10C20.2266 15.3631 15.8631 19.7266 10.5 19.7266C5.13685 19.7266 0.773438 15.3631 0.773438 10Z" fill="white" stroke="white" stroke-width="0.046875"/>
</svg>
