<svg width="12" height="15" viewBox="0 0 12 15" fill="none" xmlns="http://www.w3.org/2000/svg">
<path d="M6.03554 10.8056C5.42521 10.8056 4.93045 10.3267 4.93045 9.73611C4.93045 9.14547 5.42521 8.66667 6.03554 8.66667C6.64587 8.66667 7.14063 9.14547 7.14063 9.73611C7.14063 10.3267 6.64587 10.8056 6.03554 10.8056Z" fill="black"/>
<path fill-rule="evenodd" clip-rule="evenodd" d="M9.986 5.16667C9.986 3.92899 9.57628 2.742 8.84697 1.86684C8.11767 0.991665 7.12851 0.5 6.09711 0.5C5.06572 0.5 4.07656 0.991665 3.34725 1.86683C2.61795 2.742 2.20822 3.92899 2.20822 5.16667L2.08211 5.16667C0.970487 5.16667 0.0693359 6.06782 0.0693359 7.17944V12.4872C0.0693359 13.5988 0.970487 14.5 2.08211 14.5H9.91767C11.0293 14.5 11.9304 13.5988 11.9304 12.4872V7.17944C11.9304 6.06782 11.0293 5.16667 9.91767 5.16667H9.986ZM8.88012 5.16667L3.31411 5.16667C3.31411 4.28095 3.60732 3.43151 4.12923 2.80521C4.65115 2.17891 5.35901 1.82706 6.09711 1.82706C6.83521 1.82706 7.54308 2.17891 8.06499 2.80521C8.58691 3.43151 8.88012 4.28095 8.88012 5.16667ZM9.91767 6.13889H2.08211C1.50743 6.13889 1.04156 6.60476 1.04156 7.17944V12.4872C1.04156 13.0619 1.50743 13.5278 2.08211 13.5278H9.91767C10.4924 13.5278 10.9582 13.0619 10.9582 12.4872V7.17944C10.9582 6.60476 10.4924 6.13889 9.91767 6.13889Z" fill="black"/>
</svg>
