<svg width="20" height="20" viewBox="0 0 20 20" fill="none" xmlns="http://www.w3.org/2000/svg">
<rect width="20" height="20" rx="7" fill="white" fill-opacity="0.9"/>
<path d="M10.0001 14.3917L15.1501 17.5L13.7834 11.6417L18.3334 7.70002L12.3417 7.19169L10.0001 1.66669L7.65841 7.19169L1.66675 7.70002L6.21675 11.6417L4.85008 17.5L10.0001 14.3917Z" fill="#4370FF" fill-opacity="0.9"/>
</svg>
