<svg width="17" height="14" viewBox="0 0 17 14" fill="none" xmlns="http://www.w3.org/2000/svg">
<path d="M8.31226 4.43207L10.6333 6.75313L10.6444 6.63155C10.6444 5.41206 9.65332 4.42102 8.43384 4.42102L8.31226 4.43207Z" fill="#677294"/>
<path d="M8.43365 2.94744C10.4673 2.94744 12.1179 4.59798 12.1179 6.63167C12.1179 7.10693 12.0221 7.56009 11.8563 7.97639L14.0116 10.1317C15.1242 9.20324 16.001 8.00219 16.5426 6.63167C15.2642 3.39694 12.1216 1.10535 8.43368 1.10535C7.40209 1.10535 6.41474 1.28955 5.49738 1.62113L7.08896 3.20901C7.50523 3.04692 7.95838 2.94744 8.43365 2.94744Z" fill="#677294"/>
<path d="M1.06526 0.939474L2.74526 2.61948L3.08054 2.95475C1.86475 3.90528 0.903167 5.16898 0.32843 6.63159C1.60318 9.86631 4.74949 12.1579 8.43371 12.1579C9.57583 12.1579 10.6663 11.9369 11.6648 11.5353L11.9779 11.8484L14.1259 14L15.0653 13.0642L2.00474 0L1.06526 0.939474ZM5.14002 5.01054L6.27845 6.14896C6.24529 6.3074 6.22318 6.4658 6.22318 6.63159C6.22318 7.85107 7.21422 8.84211 8.43371 8.84211C8.5995 8.84211 8.75793 8.82001 8.91267 8.78685L10.0511 9.92527C9.56108 10.1684 9.01584 10.3158 8.43371 10.3158C6.40003 10.3158 4.74949 8.66527 4.74949 6.63159C4.74949 6.04949 4.89687 5.50422 5.14002 5.01054Z" fill="#677294"/>
</svg>
